{
  "$schema": "http://json-schema.org/draft-07/schema#",
  "type": "object",
  "properties": {
    "source": {
      "type": "string",
      "description": "Channel name of the source traffic sensor"
    },
    "status": {
      "type": "string",
      "description": "Status of the data"
    },
    "tstamp": {
      "type": "integer",
      "description": "UNIX timestamp (epoch) in milliseconds (in UTC)"
    },
    "nobjects": {
      "type": "integer",
      "description": "Number of moving objects reported in this message"
    },
    "objects": {
      "type": "array",
      "items": {
        "type": "object",
        "properties": {
          "id": {
            "type": "integer",
            "description": "Internal radar id-number, cycles from 0 to 254",
            "minimum": 0,
            "maximum": 255
          },
          "lat": {
            "type": "number",
            "description": "Latitude degrees (WGS 84)"
          },
          "lon": {
            "type": "number",
            "description": "Longitude degrees (WGS 84)"
          },
          "speed": {
            "type": "number",
            "description": "Speed in m/s"
          },
          "bearing": {
            "type": "number",
            "description": "Angle (degrees) clockwise from north"
          },
          "quality": {
            "type": "number",
            "description": "Detection quality determined by the radar",
            "minimum": 0,
            "maximum": 1
          },
          "length": {
            "type": "number",
            "description": "Length of the object in meters"
          },
          "class": {
            "type": "integer",
            "description": "Object type determined by the radar",
            "enum": [
              0,
              1,
              2,
              3,
              4,
              6,
              7,
              8
            ],
            "enumNames": [
              "Undefined",
              "Pedestrian",
              "Bicycle",
              "Motorcycle",
              "Passenger car",
              "Delivery/pickup",
              "Short Truck",
              "Long Truck"
            ]
          },
          "lane": {
            "type": "integer",
            "description": "Internal radar's lane id number"
          },
          "acceleration": {
            "type": "number",
            "description": "Object acceleration in m/s^2"
          },
          "last_updated": {
            "type": "number",
            "description": "Time, in seconds, from the last time radar detected the object"
          }
        },
        "required": [
          "id",
          "lat",
          "lon",
          "speed",
          "bearing",
          "quality",
          "length",
          "class",
          "lane",
          "acceleration",
          "last_updated"
        ]
      }
    }
  },
  "required": [
    "source",
    "status",
    "tstamp",
    "nobjects",
    "objects"
  ]
}
